{
  "project_info": {
    "project_number": "932012664194",
    "firebase_url": "https://archivoapp-c47c2.firebaseio.com",
    "project_id": "archivoapp-c47c2",
    "storage_bucket": "archivoapp-c47c2.appspot.com"
  },
  "client": [
    {
      "client_info": {
        "mobilesdk_app_id": "1:932012664194:android:88cd71b1f8f01ebe",
        "android_client_info": {
          "package_name": "com.example.archivoappuser"
        }
      },
      "oauth_client": [
        {
          "client_id": "932012664194-esif7t3rdtrcfh7rfv3dhk7vhtneaqne.apps.googleusercontent.com",
          "client_type": 1,
          "android_info": {
            "package_name": "com.example.archivoappuser",
            "certificate_hash": "82eae78293ff6fef41fbf5bfa30dc6e637a4bc9c"
          }
        },
        {
          "client_id": "932012664194-7mqp5b61kvkjq4t03abb9eeuqrhh4p8e.apps.googleusercontent.com",
          "client_type": 3
        }
      ],
      "api_key": [
        {
          "current_key": "AIzaSyDa7ztQGckhMGK8D8t8Y-Q1Z-4D1FmLlmk"
        }
      ],
      "services": {
        "analytics_service": {
          "status": 1
        },
        "appinvite_service": {
          "status": 2,
          "other_platform_oauth_client": [
            {
              "client_id": "932012664194-7mqp5b61kvkjq4t03abb9eeuqrhh4p8e.apps.googleusercontent.com",
              "client_type": 3
            }
          ]
        },
        "ads_service": {
          "status": 2
        }
      }
    },
    {
      "client_info": {
        "mobilesdk_app_id": "1:932012664194:android:e65cc9e7c86f9fce",
        "android_client_info": {
          "package_name": "com.example.taskapp.archivoappadmin"
        }
      },
      "oauth_client": [
        {
          "client_id": "932012664194-7mqp5b61kvkjq4t03abb9eeuqrhh4p8e.apps.googleusercontent.com",
          "client_type": 3
        }
      ],
      "api_key": [
        {
          "current_key": "AIzaSyDa7ztQGckhMGK8D8t8Y-Q1Z-4D1FmLlmk"
        }
      ],
      "services": {
        "analytics_service": {
          "status": 1
        },
        "appinvite_service": {
          "status": 1,
          "other_platform_oauth_client": []
        },
        "ads_service": {
          "status": 2
        }
      }
    }
  ],
  "configuration_version": "1"
}